IS415 Geospatial Analytics and Applications - Take-home Exercise 2: Application of Spatial and Spatio-temporal Analysis Methods to Discover the Distribution of Dengue Fever in Tainan City, Taiwan
…
6.2.3.2 Compute Gi statistics

HCSA <- wm_idw %>% 
  mutate(local_Gi = local_gstar_perm(
    total_dengue_cases, nb, wt, nsim = 99),
         .before = 1) %>%
  unnest(local_Gi)
HCSA

Simple feature collection with 258 features and 16 fields
Geometry type: POLYGON
Dimension:     XY
Bounding box:  xmin: 120.0627 ymin: 22.89401 xmax: 120.2925 ymax: 23.09144
Geodetic CRS:  TWD97
# A tibble: 258 × 17
   gi_star    e_gi   var_gi p_value   p_sim p_folded_sim skewness kurtosis nb   
     <dbl>   <dbl>    <dbl>   <dbl>   <dbl>        <dbl>    <dbl>    <dbl> <nb> 
 1 -1.95   0.00286  2.33e-6 -1.68   0.0921          0.02     0.01   0.845  <int>
 2 -1.64   0.00356  1.70e-6 -1.64   0.101           0.08     0.04   0.146  <int>
 3 -1.44   0.00431  1.37e-6 -1.86   0.0628          0.08     0.04   0.209  <int>
 4 -0.244  0.00367  1.84e-6 -0.0987 0.921           0.96     0.48   0.426  <int>
 5 -2.23   0.00329  2.58e-6 -1.91   0.0562          0.02     0.01   0.765  <int>
 6 -2.86   0.00335  1.41e-6 -2.67   0.00765         0.02     0.01   0.322  <int>
 7 -0.851  0.00324  2.06e-6 -0.531  0.595           0.64     0.32   0.622  <int>
 8  0.0840 0.00392  1.33e-6  0.0438 0.965           0.86     0.43   0.432  <int>
 9  1.84   0.00411  1.66e-6  1.96   0.0500          0.04     0.02   0.0233 <int>
10 -0.971  0.00381  1.69e-6 -0.979  0.328           0.36     0.18   0.194  <int>
# ℹ 248 more rows
# ℹ 8 more variables: wts <list>, COUNTYNAME <chr>, TOWNID <chr>,
#   TOWNNAME <chr>, VILLNAME <chr>, TOWNNAME_VILLNAME <chr>,
#   total_dengue_cases <int>, geometry <POLYGON [°]>
…
